{
  "development": {
    "username": "hasan",
    "password": "gajah",
    "database": "game_suit_development",
    "host": "127.0.0.1",
    "dialect": "postgres"
  },
  "test": {
    "username": "hasan",
    "password": "gajah",
    "database": "game_suit_test",
    "host": "127.0.0.1",
    "dialect": "postgres"
  },
  "production": {
    "username": "hasan",
    "password": "gajah",
    "database": "game_suit_production",
    "host": "127.0.0.1",
    "dialect": "postgres"
  }
}
